\relax 
\@writefile{lof}{\addvspace {10pt}}
\@writefile{lot}{\addvspace {10pt}}
\@writefile{toc}{\contentsline {chapter}{Fragmentos do diário de Adão}{11}}
\@writefile{lof}{\addvspace {10pt}}
\@writefile{lot}{\addvspace {10pt}}
\@writefile{toc}{\contentsline {chapter}{Diário de Eva}{25}}
\@writefile{toc}{\contentsline {section}{Fragmento do diário de Adão}{38}}
\@writefile{toc}{\contentsline {section}{Fragmento do diário de Eva}{40}}
\@writefile{toc}{\contentsline {section}{Depois da queda}{43}}
\@writefile{toc}{\contentsline {section}{Quarenta anos depois}{46}}
\@writefile{toc}{\contentsline {section}{No túmulo de Eva}{46}}
\@writefile{lof}{\addvspace {10pt}}
\@writefile{lot}{\addvspace {10pt}}
\@writefile{toc}{\contentsline {chapter}{Passagens do diário de Satã}{47}}
\@writefile{lof}{\addvspace {10pt}}
\@writefile{lot}{\addvspace {10pt}}
\@writefile{toc}{\contentsline {chapter}{Autobiografia de Eva}{55}}
\@writefile{toc}{\contentsline {subsection}{Diário de Eva}{55}}
\@writefile{lof}{\addvspace {10pt}}
\@writefile{lot}{\addvspace {10pt}}
\@writefile{toc}{\contentsline {chapter}{Solilóquio de Adão}{91}}
\@writefile{lof}{\addvspace {10pt}}
\@writefile{lot}{\addvspace {10pt}}
\@writefile{toc}{\contentsline {chapter}{Posfácio}{101}}
\@writefile{toc}{\contentsline {section}{\textsc  {\MakeTextLowercase  {AS}} \textsc  {\MakeTextLowercase  {AVENTURAS}} \textsc  {\MakeTextLowercase  {DE}} \textsc  {\MakeTextLowercase  {MARK}} \textsc  {\MakeTextLowercase  {TWAIN}}}{102}}
\@writefile{toc}{\contentsline {section}{\textsc  {\MakeTextLowercase  {SONHO}} \textsc  {\MakeTextLowercase  {DE}} \textsc  {\MakeTextLowercase  {INFÂNCIA}}}{104}}
\@writefile{toc}{\contentsline {section}{\textsc  {\MakeTextLowercase  {UMA}} \textsc  {\MakeTextLowercase  {TACADA}} \textsc  {\MakeTextLowercase  {DE}} \textsc  {\MakeTextLowercase  {SORTE}} (de Sam a Twain)}{106}}
\@writefile{toc}{\contentsline {section}{O \textsc  {\MakeTextLowercase  {PALESTRANTE}} E O \textsc  {\MakeTextLowercase  {INVESTIDOR}}}{110}}
\@writefile{toc}{\contentsline {section}{O \textsc  {\MakeTextLowercase  {EXÍLIO}}}{115}}
\@writefile{toc}{\contentsline {section}{A \textsc  {\MakeTextLowercase  {IRONIA}} E A \textsc  {\MakeTextLowercase  {SÁTIRA}} \textsc  {\MakeTextLowercase  {EM}} \textsc  {\MakeTextLowercase  {TWAIN}}}{117}}
\@writefile{toc}{\contentsline {section}{\textsc  {\MakeTextLowercase  {GÊNESE}} E \textsc  {\MakeTextLowercase  {PUBLICAÇÃODAS}} \textsc  {\MakeTextLowercase  {SÁTIRAS}} \textsc  {\MakeTextLowercase  {DA}} \textsc  {\MakeTextLowercase  {BÍBLIA}}}{121}}
\@writefile{toc}{\contentsline {section}{A \textsc  {\MakeTextLowercase  {CAIXA}}"-\textsc  {\MakeTextLowercase  {PRETA}}}{122}}
\@writefile{toc}{\contentsline {section}{O \textsc  {\MakeTextLowercase  {DIÁRIO}} E \textsc  {\MakeTextLowercase  {OUTROS}} \textsc  {\MakeTextLowercase  {CONTOSDE}} \textsc  {\MakeTextLowercase  {TEMÁTICA}} \textsc  {\MakeTextLowercase  {BÍBLICA}}}{126}}
\@writefile{toc}{\contentsline {section}{\textsc  {\MakeTextLowercase  {BIBLIOGRAFIA}}}{130}}
\@setckpt{INPUTS}{
\setcounter{page}{131}
\setcounter{equation}{0}
\setcounter{enumi}{0}
\setcounter{enumii}{0}
\setcounter{enumiii}{0}
\setcounter{enumiv}{0}
\setcounter{footnote}{3}
\setcounter{mpfootnote}{0}
\setcounter{@memmarkcntra}{0}
\setcounter{storedpagenumber}{1}
\setcounter{book}{0}
\setcounter{part}{0}
\setcounter{chapter}{0}
\setcounter{section}{0}
\setcounter{subsection}{0}
\setcounter{subsubsection}{0}
\setcounter{paragraph}{0}
\setcounter{subparagraph}{0}
\setcounter{@ppsavesec}{0}
\setcounter{@ppsaveapp}{0}
\setcounter{vslineno}{0}
\setcounter{poemline}{0}
\setcounter{modulo@vs}{0}
\setcounter{memfvsline}{0}
\setcounter{verse}{0}
\setcounter{chrsinstr}{0}
\setcounter{poem}{0}
\setcounter{newflo@tctr}{4}
\setcounter{@contsubnum}{0}
\setcounter{maxsecnumdepth}{1}
\setcounter{sidefootnote}{0}
\setcounter{pagenote}{0}
\setcounter{pagenoteshadow}{0}
\setcounter{memfbvline}{0}
\setcounter{bvlinectr}{0}
\setcounter{cp@cntr}{0}
\setcounter{ism@mctr}{0}
\setcounter{xsm@mctr}{0}
\setcounter{csm@mctr}{0}
\setcounter{ksm@mctr}{0}
\setcounter{xksm@mctr}{0}
\setcounter{cksm@mctr}{0}
\setcounter{msm@mctr}{0}
\setcounter{xmsm@mctr}{0}
\setcounter{cmsm@mctr}{0}
\setcounter{bsm@mctr}{0}
\setcounter{workm@mctr}{0}
\setcounter{sheetsequence}{131}
\setcounter{lastsheet}{136}
\setcounter{lastpage}{136}
\setcounter{figure}{0}
\setcounter{lofdepth}{1}
\setcounter{table}{0}
\setcounter{lotdepth}{1}
\setcounter{DefaultLines}{2}
\setcounter{L@lines}{0}
\setcounter{lips@count}{0}
\setcounter{pp@next@reset}{0}
\setcounter{@sectionNumCenter}{0}
\setcounter{ContinuedFloat}{0}
\setcounter{PWSTtable}{0}
}
